63172 430208 449
162584 797406 509
539504 655374 509
599688 903746 525
321020 458967 449
996692 997118 321
982113 992411 427
477522 664662 509
622558 802842 509
564179 850292 525
404907 603766 470
809564 964627 525
938421 976876 507
841732 914796 476
549527 879671 525
145065 181300 383
949616 998197 458
747792 824831 468
274953 859797 525
706584 835484 468
629428 886024 525
230856 677404 509
145542 452466 449
195952 650012 509
272797 964947 525
635058 914123 525
456527 794164 509
480325 527635 470
273477 420907 449
818729 929338 525
229971 388474 443
510906 694559 509
564136 787122 509
830602 968469 525
937761 958851 507
346125 379488 423
58088 253984 443
837657 980023 525
15114 859562 525
99190 198946 383
901943 925310 476
984673 985401 427
982167 997625 427
92774 882244 525
82896 571364 470
974855 989450 427
444869 512984 470
143318 237191 443
925269 988188 507
921838 943867 507
834876 854676 525
166928 539478 470
334413 373763 441
143931 984976 525
296079 767125 509
518575 885371 525
211226 620338 470
565525 628279 509
633943 849360 525
939902 966639 414
349241 908581 525
544667 696594 509
46607 474161 449
238963 755109 509
581501 682370 509
315083 770386 509
679915 848892 525
741863 859638 525
918413 988875 507
956951 972886 458
567858 839725 525
408677 702117 509
570911 942740 525
441893 711364 509
992078 994935 365
64350 456247 449
906047 947339 507
747814 875244 525
997679 999980 440
349359 942412 525
229760 316111 443
261909 703926 509
18999 290422 443
943945 986283 458
887149 983834 507
870560 947414 507
175105 963675 525
839350 855620 419
791781 925799 525
946533 954158 414
115148 675944 509
543716 641125 509
647129 749945 504
398635 428527 449
133850 468206 449
852887 989966 507
83126 190180 383
509007 726926 509
312970 638028 509
977518 982605 427
181186 977018 525
307700 998791 525
801253 823027 450
920034 985227 507
370529 489754 449
498477 715659 509
703870 832552 504
600630 668665 509
969436 983911 458
297107 732022 509
300771 761654 509
529014 657301 509
791329 924987 525
372044 675930 509
10460 913185 525
987689 991013 352
36791 845713 525
421222 438497 418
880468 995008 507
632991 904084 525
254380 395783 441
676639 789415 504
214876 667706 509
749250 898404 525
89798 538643 470
809538 863844 525
401329 856619 525
484428 506238 426
217100 376308 443
695153 887800 525
770621 959097 525
16498 913481 525
139768 847685 525
126427 463779 449
632328 758703 504
304139 526261 470
380051 596808 470
496191 769969 509
509939 924689 525
217144 360266 443
208894 610691 470
172768 994159 525
745846 958762 525
219105 586480 470
825023 926057 525
706492 785544 468
83583 344659 443
356392 908407 525
784051 890830 525
835582 954712 525
104982 365985 443
314544 377904 441
237908 543777 470
151017 738902 509
312807 437119 449
615534 638181 509
527998 831212 509
559773 813161 509
804980 995275 525
79729 940925 525
947758 967393 414
915540 919482 383
607857 848385 525
406895 758391 509
136139 495309 449
619745 900899 525
712187 784392 468
355796 398456 436
153537 391734 443
185935 371325 443
978226 984418 427
909703 921861 476
559106 595698 434
658631 932971 525
544714 958720 525
202325 709818 509
564254 921794 525
796442 980595 525
275140 688070 509
198947 592142 470
410510 942259 525
725945 807660 468
993935 999300 440
699133 745830 504
717099 773499 468
631072 969499 525
608963 801715 509
897226 927064 476
792182 925622 525
882745 964187 507
221555 270437 443
413754 596225 470
503317 806484 509
535342 980140 525
178181 432792 449
9218 135428 354
370658 536922 470
53631 176625 383
767402 779443 468
56345 608344 470
963566 966682 383
177166 988637 525
210551 372611 443
254223 691708 509
582204 902437 525
70950 433715 449
611668 777711 509
277587 911235 525
662287 712117 504
429199 858802 525
71066 642323 509
333722 965042 525
653790 767303 504
126623 885908 525
399043 757547 509
562622 985664 525
900255 990099 507
761487 939108 525
414031 500481 444
119692 219424 386
401271 408358 405
678054 755400 504
205237 514656 470
808954 856664 525
423142 560025 470
452516 872332 525
317617 475219 449
570426 801370 509
413012 418483 387
831831 851066 525
91813 284496 443
701359 808371 504
344651 549516 470
232674 669097 509
22621 91775 351
989008 990245 352
192516 446942 449
533337 983700 525
705448 864517 525
66101 322200 443
277 119756 354
19345 272681 443
574293 789441 509
833863 845745 525
95956 164740 383
686958 980391 525
242907 920869 525
590237 690107 509
458242 520840 470
138369 225541 386
