341700 814064 509
568042 881635 525
575945 355012 470
706555 600420 509
331091 830373 509
596152 793826 509
996471 642693 525
736867 640818 504
615583 469726 470
131852 656756 509
129864 645783 509
743576 179087 509
921542 532535 525
873634 206888 525
393128 528237 470
934650 243720 525
353322 248117 441
380709 567640 470
792683 323721 509
141774 657908 509
227009 215280 386
767957 344798 509
162438 408711 443
631064 617150 509
393494 377661 436
953713 921660 507
783749 731027 468
140434 218576 386
898514 37688 525
870472 20405 525
359971 922702 525
678695 133401 509
77333 163075 383
298719 845981 525
568169 676099 509
871645 863919 388
431683 489783 444
234013 379053 441
660738 12169 509
890207 276439 525
886694 175329 525
947500 634268 525
839514 319780 525
245838 351541 441
275391 6338 443
150009 950382 525
375087 295006 441
988328 343123 525
148445 414286 449
919847 628555 525
693923 159279 509
91195 787580 509
256862 803310 509
304539 485269 449
906006 785316 525
59737 54560 322
305221 943982 525
756550 136269 509
495605 609747 470
47017 380673 443
823143 436986 509
813265 77920 509
147848 461299 449
12846 577612 470
252644 500569 449
681291 882401 525
933759 683507 525
710954 856021 525
599010 585717 403
635285 73140 509
326427 180807 443
539519 456579 470
242897 572902 470
391455 496862 449
770900 266937 509
540172 29662 470
761244 554367 509
865880 258738 525
780568 444562 509
80675 955017 525
854730 455807 525
977826 536943 525
782577 495009 509
6400 42856 324
729357 1388 509
408187 843101 525
185024 507030 449
295783 307729 371
529878 775978 509
473220 544992 470
388514 723498 509
504898 756661 509
672689 388547 509
523755 717921 509
714808 334944 509
536305 382894 470
175858 990552 525
529983 641198 509
475146 598828 470
517343 806651 509
333930 653338 509
762029 506069 509
650953 913481 525
823008 254376 509
335197 358328 441
726435 151566 509
909569 725585 525
528591 817779 509
669042 604020 509
768725 894639 525
927647 400119 525
827199 184170 509
421063 883634 525
2200 771017 509
244896 431686 449
197370 279419 443
803589 537326 509
473117 753147 509
120799 626107 470
355862 515008 470
519289 732884 509
722433 761681 424
117002 131200 344
280866 580542 470
805475 578824 509
154228 536872 470
377986 445639 449
840700 973130 507
256820 623749 470
870988 686306 525
832705 784827 468
813228 705072 468
774079 245940 509
885930 475370 525
789843 432650 509
331095 881204 525
236546 687012 509
872453 176859 525
649334 958043 525
37970 87378 351
745809 733626 424
860956 46137 525
702822 425284 509
490949 781398 509
538565 301072 470
543113 238253 470
245700 976879 525
594267 127923 470
916053 422704 525
93801 233421 443
473379 418011 444
99466 968616 525
787838 399098 509
670813 587257 509
884479 681378 525
457194 869087 525
677546 110839 509
2540 72211 340
163556 301410 443
555799 433896 470
288250 748851 509
723732 526549 509
766021 276698 509
131832 331137 443
975125 466188 525
369560 977357 525
677978 949593 525
887650 717941 525
723074 705153 411
188061 853914 525
73524 781866 509
601295 8335 470
476916 203708 449
181187 357870 443
842258 155308 525
763732 174837 509
921863 935015 476
34578 306628 443
209642 576214 470
528683 25232 470
61902 484097 449
846215 16351 525
922794 912660 445
10166 145897 375
193723 615423 470
814145 40965 509
724505 543430 509
212902 453102 449
123912 35425 354
293366 833602 509
87987 547546 470
130770 543689 470
726991 603773 509
882107 646881 525
435128 313301 449
798420 286535 509
192018 497381 449
447615 238392 449
310849 195681 443
331266 346201 441
555355 80979 470
251588 197861 443
236226 101097 443
238929 580184 470
367326 488222 449
585465 962344 525
213046 128333 383
547383 501167 470
590334 167213 470
575689 835888 509